tests/vcs_examples/block_level_tests/generic/flop/tb_flop.vcd
$date
	Fri Mar 15 08:44:48 2024
$end

$version
	Synopsys VCS version U-2023.03-SP2-4_Full64
$end

$timescale
	1s
$end

$comment Csum: 1 b8c1dc1d2724083a $end


$scope module tb_flop $end
$var reg 1 ! clk $end
$var reg 1 " reset $end
$var reg 1 # clear $end
$var reg 1 $ en $end
$var reg 1 % load $end
$var reg 1 & set $end
$var reg 8 ' d [7:0] $end
$var reg 8 ( val [7:0] $end
$var reg 1 ) d_sync $end
$var reg 8 * q_flop [7:0] $end
$var reg 8 + q_flopenl [7:0] $end
$var reg 8 , q_flopenrc [7:0] $end
$var reg 8 - q_flopenr [7:0] $end
$var reg 8 . q_flopens [7:0] $end
$var reg 8 / q_flopen [7:0] $end
$var reg 8 0 q_flopr [7:0] $end
$var reg 1 1 q_sync $end

$scope begin unnamed$$_vcs_0 $end
$upscope $end


$scope module dut $end
$var reg 1 2 clk $end
$var reg 1 3 reset $end
$var reg 1 4 clear $end
$var reg 1 5 en $end
$var reg 1 6 load $end
$var reg 1 7 set $end
$var reg 8 8 d [7:0] $end
$var reg 8 9 val [7:0] $end
$var reg 8 : q_flop [7:0] $end
$var reg 8 ; q_flopenl [7:0] $end
$var reg 8 < q_flopenrc [7:0] $end
$var reg 8 = q_flopenr [7:0] $end
$var reg 8 > q_flopens [7:0] $end
$var reg 8 ? q_flopen [7:0] $end
$var reg 8 @ q_flopr [7:0] $end
$var reg 1 A d_sync $end
$var reg 1 B q_sync $end

$scope module flop_inst $end
$var reg 1 C clk $end
$var reg 8 D d [7:0] $end
$var reg 8 E q [7:0] $end
$upscope $end


$scope module flopenl_inst $end
$var reg 1 F clk $end
$var reg 1 G load $end
$var reg 1 H en $end
$var reg 8 I d [7:0] $end
$var reg 8 J val [7:0] $end
$var reg 8 K q [7:0] $end
$upscope $end


$scope module flopenrc_inst $end
$var reg 1 L clk $end
$var reg 1 M reset $end
$var reg 1 N clear $end
$var reg 1 O en $end
$var reg 8 P d [7:0] $end
$var reg 8 Q q [7:0] $end
$upscope $end


$scope module flopenr_inst $end
$var reg 1 R clk $end
$var reg 1 S reset $end
$var reg 1 T en $end
$var reg 8 U d [7:0] $end
$var reg 8 V q [7:0] $end
$upscope $end


$scope module flopens_inst $end
$var reg 1 W clk $end
$var reg 1 X set $end
$var reg 1 Y en $end
$var reg 8 Z d [7:0] $end
$var reg 8 [ q [7:0] $end
$upscope $end


$scope module flopen_inst $end
$var reg 1 \ clk $end
$var reg 1 ] en $end
$var reg 8 ^ d [7:0] $end
$var reg 8 _ q [7:0] $end
$upscope $end


$scope module flopr_inst $end
$var reg 1 ` clk $end
$var reg 1 a reset $end
$var reg 8 b d [7:0] $end
$var reg 8 c q [7:0] $end
$upscope $end


$scope module synchronizer_inst $end
$var reg 1 d clk $end
$var reg 1 e d $end
$var reg 1 f q $end
$var reg 1 g mid $end
$upscope $end

$upscope $end

$upscope $end

$enddefinitions $end

#0
$dumpvars
0#
0!
0)
04
0A
05
06
xB
13
07
0$
0]
0H
0G
0T
1S
0N
0O
1M
0Y
0X
1a
0%
xg
x1
1"
0&
0e
xf
b00000000 I
bxxxxxxxx K
b00000000 J
b00000000 '
b00000000 8
bxxxxxxxx :
bxxxxxxxx ?
bxxxxxxxx ;
bxxxxxxxx =
bxxxxxxxx <
bxxxxxxxx >
bxxxxxxxx @
b00000000 9
b00000000 D
b00000000 ^
bxxxxxxxx _
b00000000 U
bxxxxxxxx V
b00000000 P
bxxxxxxxx Q
b00000000 Z
bxxxxxxxx [
b00000000 b
bxxxxxxxx c
bxxxxxxxx E
bxxxxxxxx *
bxxxxxxxx /
bxxxxxxxx +
bxxxxxxxx -
bxxxxxxxx ,
bxxxxxxxx .
bxxxxxxxx 0
b00000000 (
02
0C
0F
0L
0R
0W
0\
0`
0d
$end
#5
1!
12
1C
1F
1L
1R
1W
1\
1`
1d
#6
b00000000 E
b00000000 :
b00000000 *
b00000000 Q
b00000000 <
b00000000 ,
b00000000 V
b00000000 =
b00000000 -
b00000000 c
b00000000 @
b00000000 0
0g
#10
0"
03
0a
0S
0M
0!
02
0C
0F
0L
0R
0W
0\
0`
0d
#15
1!
12
1C
1F
1L
1R
1W
1\
1`
1d
#16
0f
0B
01
#20
1#
14
1N
1$
15
1]
1Y
1T
1O
1H
1%
16
1G
1&
17
1X
b00010011 '
b00010011 8
b00010011 b
b00010011 ^
b00010011 Z
b00010011 U
b00010011 P
b00010011 I
b00010011 D
b01110000 (
b01110000 9
b01110000 J
1)
1A
1e
0!
02
0C
0F
0L
0R
0W
0\
0`
0d
#25
1!
12
1C
1F
1L
1R
1W
1\
1`
1d
#26
b00010011 E
b00010011 :
b00010011 *
b01110000 K
b01110000 ;
b01110000 +
b00010011 V
b00010011 =
b00010011 -
b00000001 [
b00000001 >
b00000001 .
b00010011 _
b00010011 ?
b00010011 /
b00010011 c
b00010011 @
b00010011 0
1g
#30
1"
13
1a
1S
1M
0$
05
0]
0Y
0T
0O
0H
b11100010 '
b11100010 8
b11100010 b
b11100010 ^
b11100010 Z
b11100010 U
b11100010 P
b11100010 I
b11100010 D
b10010111 (
b10010111 9
b10010111 J
0!
02
0C
0F
0L
0R
0W
0\
0`
0d
#35
1!
12
1C
1F
1L
1R
1W
1\
1`
1d
#36
b11100010 E
b11100010 :
b11100010 *
b10010111 K
b10010111 ;
b10010111 +
b00000000 V
b00000000 =
b00000000 -
b00000000 c
b00000000 @
b00000000 0
1f
1B
11
#40
0"
03
0a
0S
0M
1$
15
1]
1Y
1T
1O
1H
0%
06
0G
b11000101 '
b11000101 8
b11000101 b
b11000101 ^
b11000101 Z
b11000101 U
b11000101 P
b11000101 I
b11000101 D
b11101100 (
b11101100 9
b11101100 J
0)
0A
0e
0!
02
0C
0F
0L
0R
0W
0\
0`
0d
#45
1!
12
1C
1F
1L
1R
1W
1\
1`
1d
#46
b11000101 E
b11000101 :
b11000101 *
b11000101 K
b11000101 ;
b11000101 +
b11000101 V
b11000101 =
b11000101 -
b11000101 _
b11000101 ?
b11000101 /
b11000101 c
b11000101 @
b11000101 0
0g
#50
0$
05
0]
0Y
0T
0O
0H
1%
16
1G
b00001100 '
b00001100 8
b00001100 b
b00001100 ^
b00001100 Z
b00001100 U
b00001100 P
b00001100 I
b00001100 D
b00101100 (
b00101100 9
b00101100 J
1)
1A
1e
0!
02
0C
0F
0L
0R
0W
0\
0`
0d
#55
1!
12
1C
1F
1L
1R
1W
1\
1`
1d
#56
b00001100 E
b00001100 :
b00001100 *
b00101100 K
b00101100 ;
b00101100 +
b00001100 c
b00001100 @
b00001100 0
1g
0f
0B
01
#60
0%
06
0G
0&
07
0X
b00011011 '
b00011011 8
b00011011 b
b00011011 ^
b00011011 Z
b00011011 U
b00011011 P
b00011011 I
b00011011 D
b01000101 (
b01000101 9
b01000101 J
0)
0A
0e
0!
02
0C
0F
0L
0R
0W
0\
0`
0d
#65
1!
12
1C
1F
1L
1R
1W
1\
1`
1d
#66
b00011011 E
b00011011 :
b00011011 *
b00011011 c
b00011011 @
b00011011 0
0g
1f
1B
11
#70
1"
13
1a
1S
1M
0#
04
0N
1$
15
1]
1Y
1T
1O
1H
1%
16
1G
1&
17
1X
b01101100 '
b01101100 8
b01101100 b
b01101100 ^
b01101100 Z
b01101100 U
b01101100 P
b01101100 I
b01101100 D
b01100111 (
b01100111 9
b01100111 J
0!
02
0C
0F
0L
0R
0W
0\
0`
0d
#75
1!
12
1C
1F
1L
1R
1W
1\
1`
1d
#76
b01101100 E
b01101100 :
b01101100 *
b01100111 K
b01100111 ;
b01100111 +
b00000000 V
b00000000 =
b00000000 -
b01101100 _
b01101100 ?
b01101100 /
b00000000 c
b00000000 @
b00000000 0
0f
0B
01
#80
0$
05
0]
0Y
0T
0O
0H
0%
06
0G
0&
07
0X
b01001010 '
b01001010 8
b01001010 b
b01001010 ^
b01001010 Z
b01001010 U
b01001010 P
b01001010 I
b01001010 D
b10100110 (
b10100110 9
b10100110 J
1)
1A
1e
0!
02
0C
0F
0L
0R
0W
0\
0`
0d
#85
1!
12
1C
1F
1L
1R
1W
1\
1`
1d
#86
b01001010 E
b01001010 :
b01001010 *
1g
#90
1$
15
1]
1Y
1T
1O
1H
1%
16
1G
1&
17
1X
b10011101 '
b10011101 8
b10011101 b
b10011101 ^
b10011101 Z
b10011101 U
b10011101 P
b10011101 I
b10011101 D
b01111100 (
b01111100 9
b01111100 J
0)
0A
0e
0!
02
0C
0F
0L
0R
0W
0\
0`
0d
#95
1!
12
1C
1F
1L
1R
1W
1\
1`
1d
#96
b10011101 E
b10011101 :
b10011101 *
b01111100 K
b01111100 ;
b01111100 +
b10011101 _
b10011101 ?
b10011101 /
0g
1f
1B
11
#100
1#
14
1N
0$
05
0]
0Y
0T
0O
0H
0%
06
0G
b11101011 '
b11101011 8
b11101011 b
b11101011 ^
b11101011 Z
b11101011 U
b11101011 P
b11101011 I
b11101011 D
b01011011 (
b01011011 9
b01011011 J
1)
1A
1e
0!
02
0C
0F
0L
0R
0W
0\
0`
0d
#105
1!
12
1C
1F
1L
1R
1W
1\
1`
1d
#106
b11101011 E
b11101011 :
b11101011 *
1g
0f
0B
01
#110
0&
07
0X
b01001101 '
b01001101 8
b01001101 b
b01001101 ^
b01001101 Z
b01001101 U
b01001101 P
b01001101 I
b01001101 D
b01011100 (
b01011100 9
b01011100 J
0)
0A
0e
0!
02
0C
0F
0L
0R
0W
0\
0`
0d
#115
1!
12
1C
1F
1L
1R
1W
1\
1`
1d
#116
b01001101 E
b01001101 :
b01001101 *
0g
1f
1B
11
#120
0"
03
0a
0S
0M
0#
04
0N
1$
15
1]
1Y
1T
1O
1H
b11011001 '
b11011001 8
b11011001 b
b11011001 ^
b11011001 Z
b11011001 U
b11011001 P
b11011001 I
b11011001 D
b10101001 (
b10101001 9
b10101001 J
0!
02
0C
0F
0L
0R
0W
0\
0`
0d
#125
1!
12
1C
1F
1L
1R
1W
1\
1`
1d
#126
b11011001 E
b11011001 :
b11011001 *
b11011001 K
b11011001 ;
b11011001 +
b11011001 Q
b11011001 <
b11011001 ,
b11011001 V
b11011001 =
b11011001 -
b11011001 [
b11011001 >
b11011001 .
b11011001 _
b11011001 ?
b11011001 /
b11011001 c
b11011001 @
b11011001 0
0f
0B
01
#130
1"
13
1a
1S
1M
1#
14
1N
0$
05
0]
0Y
0T
0O
0H
b10011110 '
b10011110 8
b10011110 b
b10011110 ^
b10011110 Z
b10011110 U
b10011110 P
b10011110 I
b10011110 D
b11001000 (
b11001000 9
b11001000 J
1)
1A
1e
0!
02
0C
0F
0L
0R
0W
0\
0`
0d
#135
1!
12
1C
1F
1L
1R
1W
1\
1`
1d
#136
b10011110 E
b10011110 :
b10011110 *
b00000000 Q
b00000000 <
b00000000 ,
b00000000 V
b00000000 =
b00000000 -
b00000000 c
b00000000 @
b00000000 0
1g
#140
0"
03
0a
0S
0M
0#
04
0N
1$
15
1]
1Y
1T
1O
1H
1%
16
1G
1&
17
1X
b00100110 '
b00100110 8
b00100110 b
b00100110 ^
b00100110 Z
b00100110 U
b00100110 P
b00100110 I
b00100110 D
b11110110 (
b11110110 9
b11110110 J
0)
0A
0e
0!
02
0C
0F
0L
0R
0W
0\
0`
0d
#145
1!
12
1C
1F
1L
1R
1W
1\
1`
1d
#146
b00100110 E
b00100110 :
b00100110 *
b11110110 K
b11110110 ;
b11110110 +
b00100110 Q
b00100110 <
b00100110 ,
b00100110 V
b00100110 =
b00100110 -
b00000001 [
b00000001 >
b00000001 .
b00100110 _
b00100110 ?
b00100110 /
b00100110 c
b00100110 @
b00100110 0
0g
1f
1B
11
#150
1"
13
1a
1S
1M
1#
14
1N
0$
05
0]
0Y
0T
0O
0H
0%
06
0G
b01011011 '
b01011011 8
b01011011 b
b01011011 ^
b01011011 Z
b01011011 U
b01011011 P
b01011011 I
b01011011 D
b01000010 (
b01000010 9
b01000010 J
1)
1A
1e
0!
02
0C
0F
0L
0R
0W
0\
0`
0d
#155
1!
12
1C
1F
1L
1R
1W
1\
1`
1d
#156
b01011011 E
b01011011 :
b01011011 *
b00000000 Q
b00000000 <
b00000000 ,
b00000000 V
b00000000 =
b00000000 -
b00000000 c
b00000000 @
b00000000 0
1g
0f
0B
01
#160
b10010001 '
b10010001 8
b10010001 b
b10010001 ^
b10010001 Z
b10010001 U
b10010001 P
b10010001 I
b10010001 D
b00111000 (
b00111000 9
b00111000 J
0!
02
0C
0F
0L
0R
0W
0\
0`
0d
#165
1!
12
1C
1F
1L
1R
1W
1\
1`
1d
#166
b10010001 E
b10010001 :
b10010001 *
1f
1B
11
#170
0#
04
0N
1$
15
1]
1Y
1T
1O
1H
1%
16
1G
0&
07
0X
b01101101 '
b01101101 8
b01101101 b
b01101101 ^
b01101101 Z
b01101101 U
b01101101 P
b01101101 I
b01101101 D
b11000010 (
b11000010 9
b11000010 J
0!
02
0C
0F
0L
0R
0W
0\
0`
0d
#175
1!
12
1C
1F
1L
1R
1W
1\
1`
1d
#176
b01101101 E
b01101101 :
b01101101 *
b11000010 K
b11000010 ;
b11000010 +
b01101101 [
b01101101 >
b01101101 .
b01101101 _
b01101101 ?
b01101101 /
#180
1#
14
1N
0%
06
0G
1&
17
1X
b01111100 '
b01111100 8
b01111100 b
b01111100 ^
b01111100 Z
b01111100 U
b01111100 P
b01111100 I
b01111100 D
b00101110 (
b00101110 9
b00101110 J
0!
02
0C
0F
0L
0R
0W
0\
0`
0d
#185
1!
12
1C
1F
1L
1R
1W
1\
1`
1d
#186
b01111100 E
b01111100 :
b01111100 *
b01111100 K
b01111100 ;
b01111100 +
b00000001 [
b00000001 >
b00000001 .
b01111100 _
b01111100 ?
b01111100 /
#190
0#
04
0N
0$
05
0]
0Y
0T
0O
0H
0&
07
0X
b00011101 '
b00011101 8
b00011101 b
b00011101 ^
b00011101 Z
b00011101 U
b00011101 P
b00011101 I
b00011101 D
b11100011 (
b11100011 9
b11100011 J
0)
0A
0e
0!
02
0C
0F
0L
0R
0W
0\
0`
0d
#195
1!
12
1C
1F
1L
1R
1W
1\
1`
1d
#196
b00011101 E
b00011101 :
b00011101 *
0g
#200
1#
14
1N
1&
17
1X
b00001010 '
b00001010 8
b00001010 b
b00001010 ^
b00001010 Z
b00001010 U
b00001010 P
b00001010 I
b00001010 D
b00010011 (
b00010011 9
b00010011 J
0!
02
0C
0F
0L
0R
0W
0\
0`
0d
#205
1!
12
1C
1F
1L
1R
1W
1\
1`
1d
#206
b00001010 E
b00001010 :
b00001010 *
0f
0B
01
#210
1$
15
1]
1Y
1T
1O
1H
1%
16
1G
0&
07
0X
b00111100 '
b00111100 8
b00111100 b
b00111100 ^
b00111100 Z
b00111100 U
b00111100 P
b00111100 I
b00111100 D
b00111010 (
b00111010 9
b00111010 J
0!
02
0C
0F
0L
0R
0W
0\
0`
0d
#215
1!
12
1C
1F
1L
1R
1W
1\
1`
1d
#216
b00111100 E
b00111100 :
b00111100 *
b00111010 K
b00111010 ;
b00111010 +
b00111100 [
b00111100 >
b00111100 .
b00111100 _
b00111100 ?
b00111100 /
#220
0%
06
0G
b11100111 '
b11100111 8
b11100111 b
b11100111 ^
b11100111 Z
b11100111 U
b11100111 P
b11100111 I
b11100111 D
b10010111 (
b10010111 9
b10010111 J
1)
1A
1e
0!
02
0C
0F
0L
0R
0W
0\
0`
0d
#225
1!
12
1C
1F
1L
1R
1W
1\
1`
1d
#226
b11100111 E
b11100111 :
b11100111 *
b11100111 K
b11100111 ;
b11100111 +
b11100111 [
b11100111 >
b11100111 .
b11100111 _
b11100111 ?
b11100111 /
1g
#230
0"
03
0a
0S
0M
0#
04
0N
0$
05
0]
0Y
0T
0O
0H
b11100011 '
b11100011 8
b11100011 b
b11100011 ^
b11100011 Z
b11100011 U
b11100011 P
b11100011 I
b11100011 D
b00100000 (
b00100000 9
b00100000 J
0!
02
0C
0F
0L
0R
0W
0\
0`
0d
#235
1!
12
1C
1F
1L
1R
1W
1\
1`
1d
#236
b11100011 E
b11100011 :
b11100011 *
b11100011 c
b11100011 @
b11100011 0
1f
1B
11
#240
1"
13
1a
1S
1M
1#
14
1N
1$
15
1]
1Y
1T
1O
1H
1%
16
1G
1&
17
1X
b10111111 '
b10111111 8
b10111111 b
b10111111 ^
b10111111 Z
b10111111 U
b10111111 P
b10111111 I
b10111111 D
b10010001 (
b10010001 9
b10010001 J
0!
02
0C
0F
0L
0R
0W
0\
0`
0d
#245
1!
12
1C
1F
1L
1R
1W
1\
1`
1d
#246
b10111111 E
b10111111 :
b10111111 *
b10010001 K
b10010001 ;
b10010001 +
b00000001 [
b00000001 >
b00000001 .
b10111111 _
b10111111 ?
b10111111 /
b00000000 c
b00000000 @
b00000000 0
#250
0"
03
0a
0S
0M
0%
06
0G
0&
07
0X
b01001100 '
b01001100 8
b01001100 b
b01001100 ^
b01001100 Z
b01001100 U
b01001100 P
b01001100 I
b01001100 D
b01110110 (
b01110110 9
b01110110 J
0)
0A
0e
0!
02
0C
0F
0L
0R
0W
0\
0`
0d
#255
1!
12
1C
1F
1L
1R
1W
1\
1`
1d
#256
b01001100 E
b01001100 :
b01001100 *
b01001100 K
b01001100 ;
b01001100 +
b01001100 V
b01001100 =
b01001100 -
b01001100 [
b01001100 >
b01001100 .
b01001100 _
b01001100 ?
b01001100 /
b01001100 c
b01001100 @
b01001100 0
0g
#260
1"
13
1a
1S
1M
0$
05
0]
0Y
0T
0O
0H
1%
16
1G
1&
17
1X
b00001100 (
b00001100 9
b00001100 J
1)
1A
1e
0!
02
0C
0F
0L
0R
0W
0\
0`
0d
#265
1!
12
1C
1F
1L
1R
1W
1\
1`
1d
#266
b00001100 K
b00001100 ;
b00001100 +
b00000000 V
b00000000 =
b00000000 -
b00000001 [
b00000001 >
b00000001 .
b00000000 c
b00000000 @
b00000000 0
1g
0f
0B
01
#270
0%
06
0G
0&
07
0X
b11001000 '
b11001000 8
b11001000 b
b11001000 ^
b11001000 Z
b11001000 U
b11001000 P
b11001000 I
b11001000 D
b00011111 (
b00011111 9
b00011111 J
0!
02
0C
0F
0L
0R
0W
0\
0`
0d
#275
1!
12
1C
1F
1L
1R
1W
1\
1`
1d
#276
b11001000 E
b11001000 :
b11001000 *
1f
1B
11
#280
0#
04
0N
1&
17
1X
b00100011 '
b00100011 8
b00100011 b
b00100011 ^
b00100011 Z
b00100011 U
b00100011 P
b00100011 I
b00100011 D
b10011001 (
b10011001 9
b10011001 J
0)
0A
0e
0!
02
0C
0F
0L
0R
0W
0\
0`
0d
#285
1!
12
1C
1F
1L
1R
1W
1\
1`
1d
#286
b00100011 E
b00100011 :
b00100011 *
0g
#290
1%
16
1G
0&
07
0X
b10001111 '
b10001111 8
b10001111 b
b10001111 ^
b10001111 Z
b10001111 U
b10001111 P
b10001111 I
b10001111 D
b11110110 (
b11110110 9
b11110110 J
1)
1A
1e
0!
02
0C
0F
0L
0R
0W
0\
0`
0d
#295
1!
12
1C
1F
1L
1R
1W
1\
1`
1d
#296
b10001111 E
b10001111 :
b10001111 *
b11110110 K
b11110110 ;
b11110110 +
1g
0f
0B
01
#300
0"
03
0a
0S
0M
1$
15
1]
1Y
1T
1O
1H
0%
06
0G
b11110111 '
b11110111 8
b11110111 b
b11110111 ^
b11110111 Z
b11110111 U
b11110111 P
b11110111 I
b11110111 D
b00001110 (
b00001110 9
b00001110 J
0)
0A
0e
0!
02
0C
0F
0L
0R
0W
0\
0`
0d
#305
1!
12
1C
1F
1L
1R
1W
1\
1`
1d
#306
b11110111 E
b11110111 :
b11110111 *
b11110111 K
b11110111 ;
b11110111 +
b11110111 Q
b11110111 <
b11110111 ,
b11110111 V
b11110111 =
b11110111 -
b11110111 [
b11110111 >
b11110111 .
b11110111 _
b11110111 ?
b11110111 /
b11110111 c
b11110111 @
b11110111 0
0g
1f
1B
11
#310
1"
13
1a
1S
1M
1%
16
1G
1&
17
1X
b01101101 '
b01101101 8
b01101101 b
b01101101 ^
b01101101 Z
b01101101 U
b01101101 P
b01101101 I
b01101101 D
b00000110 (
b00000110 9
b00000110 J
0!
02
0C
0F
0L
0R
0W
0\
0`
0d
#315
1!
12
1C
1F
1L
1R
1W
1\
1`
1d
#316
b01101101 E
b01101101 :
b01101101 *
b00000110 K
b00000110 ;
b00000110 +
b00000000 Q
b00000000 <
b00000000 ,
b00000000 V
b00000000 =
b00000000 -
b00000001 [
b00000001 >
b00000001 .
b01101101 _
b01101101 ?
b01101101 /
b00000000 c
b00000000 @
b00000000 0
0f
0B
01
#320
1#
14
1N
0$
05
0]
0Y
0T
0O
0H
0%
06
0G
0&
07
0X
b00011010 '
b00011010 8
b00011010 b
b00011010 ^
b00011010 Z
b00011010 U
b00011010 P
b00011010 I
b00011010 D
b10001111 (
b10001111 9
b10001111 J
1)
1A
1e
0!
02
0C
0F
0L
0R
0W
0\
0`
0d
#325
1!
12
1C
1F
1L
1R
1W
1\
1`
1d
#326
b00011010 E
b00011010 :
b00011010 *
1g
#330
0#
04
0N
1%
16
1G
1&
17
1X
b00101111 '
b00101111 8
b00101111 b
b00101111 ^
b00101111 Z
b00101111 U
b00101111 P
b00101111 I
b00101111 D
b00100001 (
b00100001 9
b00100001 J
0)
0A
0e
0!
02
0C
0F
0L
0R
0W
0\
0`
0d
#335
1!
12
1C
1F
1L
1R
1W
1\
1`
1d
#336
b00101111 E
b00101111 :
b00101111 *
b00100001 K
b00100001 ;
b00100001 +
0g
1f
1B
11
#340
0"
03
0a
0S
0M
b00001111 '
b00001111 8
b00001111 b
b00001111 ^
b00001111 Z
b00001111 U
b00001111 P
b00001111 I
b00001111 D
b01110100 (
b01110100 9
b01110100 J
0!
02
0C
0F
0L
0R
0W
0\
0`
0d
#345
1!
12
1C
1F
1L
1R
1W
1\
1`
1d
#346
b00001111 E
b00001111 :
b00001111 *
b01110100 K
b01110100 ;
b01110100 +
b00001111 c
b00001111 @
b00001111 0
0f
0B
01
#350
b01000111 '
b01000111 8
b01000111 b
b01000111 ^
b01000111 Z
b01000111 U
b01000111 P
b01000111 I
b01000111 D
b00111101 (
b00111101 9
b00111101 J
0!
02
0C
0F
0L
0R
0W
0\
0`
0d
#355
1!
12
1C
1F
1L
1R
1W
1\
1`
1d
#356
b01000111 E
b01000111 :
b01000111 *
b00111101 K
b00111101 ;
b00111101 +
b01000111 c
b01000111 @
b01000111 0
#360
0&
07
0X
b10011100 '
b10011100 8
b10011100 b
b10011100 ^
b10011100 Z
b10011100 U
b10011100 P
b10011100 I
b10011100 D
b00111110 (
b00111110 9
b00111110 J
0!
02
0C
0F
0L
0R
0W
0\
0`
0d
#365
1!
12
1C
1F
1L
1R
1W
1\
1`
1d
#366
b10011100 E
b10011100 :
b10011100 *
b00111110 K
b00111110 ;
b00111110 +
b10011100 c
b10011100 @
b10011100 0
#370
1#
14
1N
0%
06
0G
b10010100 '
b10010100 8
b10010100 b
b10010100 ^
b10010100 Z
b10010100 U
b10010100 P
b10010100 I
b10010100 D
b10100101 (
b10100101 9
b10100101 J
1)
1A
1e
0!
02
0C
0F
0L
0R
0W
0\
0`
0d
#375
1!
12
1C
1F
1L
1R
1W
1\
1`
1d
#376
b10010100 E
b10010100 :
b10010100 *
b10010100 c
b10010100 @
b10010100 0
1g
#380
1"
13
1a
1S
1M
0#
04
0N
1$
15
1]
1Y
1T
1O
1H
1%
16
1G
b11100010 '
b11100010 8
b11100010 b
b11100010 ^
b11100010 Z
b11100010 U
b11100010 P
b11100010 I
b11100010 D
b01000001 (
b01000001 9
b01000001 J
0!
02
0C
0F
0L
0R
0W
0\
0`
0d
#385
1!
12
1C
1F
1L
1R
1W
1\
1`
1d
#386
b11100010 E
b11100010 :
b11100010 *
b01000001 K
b01000001 ;
b01000001 +
b11100010 [
b11100010 >
b11100010 .
b11100010 _
b11100010 ?
b11100010 /
b00000000 c
b00000000 @
b00000000 0
1f
1B
11
#390
0"
03
0a
0S
0M
0$
05
0]
0Y
0T
0O
0H
b00110101 '
b00110101 8
b00110101 b
b00110101 ^
b00110101 Z
b00110101 U
b00110101 P
b00110101 I
b00110101 D
b00011101 (
b00011101 9
b00011101 J
0)
0A
0e
0!
02
0C
0F
0L
0R
0W
0\
0`
0d
#395
1!
12
1C
1F
1L
1R
1W
1\
1`
1d
#396
b00110101 E
b00110101 :
b00110101 *
b00011101 K
b00011101 ;
b00011101 +
b00110101 c
b00110101 @
b00110101 0
0g
#400
1&
17
1X
b11000011 '
b11000011 8
b11000011 b
b11000011 ^
b11000011 Z
b11000011 U
b11000011 P
b11000011 I
b11000011 D
b00111101 (
b00111101 9
b00111101 J
1)
1A
1e
0!
02
0C
0F
0L
0R
0W
0\
0`
0d
#405
1!
12
1C
1F
1L
1R
1W
1\
1`
1d
#406
b11000011 E
b11000011 :
b11000011 *
b00111101 K
b00111101 ;
b00111101 +
b00000001 [
b00000001 >
b00000001 .
b11000011 c
b11000011 @
b11000011 0
1g
0f
0B
01
#410
1"
13
1a
1S
1M
1$
15
1]
1Y
1T
1O
1H
b10111110 '
b10111110 8
b10111110 b
b10111110 ^
b10111110 Z
b10111110 U
b10111110 P
b10111110 I
b10111110 D
b10001100 (
b10001100 9
b10001100 J
0!
02
0C
0F
0L
0R
0W
0\
0`
0d
#415
1!
12
1C
1F
1L
1R
1W
1\
1`
1d
#416
b10111110 E
b10111110 :
b10111110 *
b10001100 K
b10001100 ;
b10001100 +
b10111110 _
b10111110 ?
b10111110 /
b00000000 c
b00000000 @
b00000000 0
1f
1B
11
#420
0"
03
0a
0S
0M
b00111000 '
b00111000 8
b00111000 b
b00111000 ^
b00111000 Z
b00111000 U
b00111000 P
b00111000 I
b00111000 D
b11001110 (
b11001110 9
b11001110 J
0!
02
0C
0F
0L
0R
0W
0\
0`
0d
#425
1!
12
1C
1F
1L
1R
1W
1\
1`
1d
#426
b00111000 E
b00111000 :
b00111000 *
b11001110 K
b11001110 ;
b11001110 +
b00111000 Q
b00111000 <
b00111000 ,
b00111000 V
b00111000 =
b00111000 -
b00111000 _
b00111000 ?
b00111000 /
b00111000 c
b00111000 @
b00111000 0
#430
1"
13
1a
1S
1M
1#
14
1N
0$
05
0]
0Y
0T
0O
0H
b01100101 '
b01100101 8
b01100101 b
b01100101 ^
b01100101 Z
b01100101 U
b01100101 P
b01100101 I
b01100101 D
b00001100 (
b00001100 9
b00001100 J
0!
02
0C
0F
0L
0R
0W
0\
0`
0d
#435
1!
12
1C
1F
1L
1R
1W
1\
1`
1d
#436
b01100101 E
b01100101 :
b01100101 *
b00001100 K
b00001100 ;
b00001100 +
b00000000 Q
b00000000 <
b00000000 ,
b00000000 V
b00000000 =
b00000000 -
b00000000 c
b00000000 @
b00000000 0
#440
0"
03
0a
0S
0M
0#
04
0N
0%
06
0G
b11110010 '
b11110010 8
b11110010 b
b11110010 ^
b11110010 Z
b11110010 U
b11110010 P
b11110010 I
b11110010 D
b10000000 (
b10000000 9
b10000000 J
0!
02
0C
0F
0L
0R
0W
0\
0`
0d
#445
1!
12
1C
1F
1L
1R
1W
1\
1`
1d
#446
b11110010 E
b11110010 :
b11110010 *
b11110010 c
b11110010 @
b11110010 0
#450
1"
13
1a
1S
1M
1%
16
1G
0&
07
0X
b00010000 '
b00010000 8
b00010000 b
b00010000 ^
b00010000 Z
b00010000 U
b00010000 P
b00010000 I
b00010000 D
b01100110 (
b01100110 9
b01100110 J
0)
0A
0e
0!
02
0C
0F
0L
0R
0W
0\
0`
0d
#455
1!
12
1C
1F
1L
1R
1W
1\
1`
1d
#456
b00010000 E
b00010000 :
b00010000 *
b01100110 K
b01100110 ;
b01100110 +
b00000000 c
b00000000 @
b00000000 0
0g
#460
0"
03
0a
0S
0M
1#
14
1N
0%
06
0G
1&
17
1X
b01010110 '
b01010110 8
b01010110 b
b01010110 ^
b01010110 Z
b01010110 U
b01010110 P
b01010110 I
b01010110 D
b10110011 (
b10110011 9
b10110011 J
0!
02
0C
0F
0L
0R
0W
0\
0`
0d
#465
1!
12
1C
1F
1L
1R
1W
1\
1`
1d
#466
b01010110 E
b01010110 :
b01010110 *
b01010110 c
b01010110 @
b01010110 0
0f
0B
01
#470
0#
04
0N
1$
15
1]
1Y
1T
1O
1H
1%
16
1G
b01000110 '
b01000110 8
b01000110 b
b01000110 ^
b01000110 Z
b01000110 U
b01000110 P
b01000110 I
b01000110 D
b01110100 (
b01110100 9
b01110100 J
0!
02
0C
0F
0L
0R
0W
0\
0`
0d
#475
1!
12
1C
1F
1L
1R
1W
1\
1`
1d
#476
b01000110 E
b01000110 :
b01000110 *
b01110100 K
b01110100 ;
b01110100 +
b01000110 Q
b01000110 <
b01000110 ,
b01000110 V
b01000110 =
b01000110 -
b01000110 _
b01000110 ?
b01000110 /
b01000110 c
b01000110 @
b01000110 0
#480
0$
05
0]
0Y
0T
0O
0H
0&
07
0X
b00100100 '
b00100100 8
b00100100 b
b00100100 ^
b00100100 Z
b00100100 U
b00100100 P
b00100100 I
b00100100 D
b00001111 (
b00001111 9
b00001111 J
0!
02
0C
0F
0L
0R
0W
0\
0`
0d
#485
1!
12
1C
1F
1L
1R
1W
1\
1`
1d
#486
b00100100 E
b00100100 :
b00100100 *
b00001111 K
b00001111 ;
b00001111 +
b00100100 c
b00100100 @
b00100100 0
#490
1#
14
1N
0%
06
0G
b10100111 '
b10100111 8
b10100111 b
b10100111 ^
b10100111 Z
b10100111 U
b10100111 P
b10100111 I
b10100111 D
b10111111 (
b10111111 9
b10111111 J
1)
1A
1e
0!
02
0C
0F
0L
0R
0W
0\
0`
0d
#495
1!
12
1C
1F
1L
1R
1W
1\
1`
1d
#496
b10100111 E
b10100111 :
b10100111 *
b10100111 c
b10100111 @
b10100111 0
1g
